{
  "name": "RoseTea Black Hole #0F6E0F36",
  "description": "A unique 3D interactible black hole animation, powered by DymensionHub and Avail!",
  "image": "https://blackholes.rosetea.xyz/thumbnails/0f6e0f360b215805591afc051d378e207521d054b785d765ab9c4ea780067b24.png",
  "animation_url": "https://blackholes.rosetea.xyz/0f6e0f360b215805591afc051d378e207521d054b785d765ab9c4ea780067b24.html",
  "attributes": [
    {
      "trait_type": "mass",
      "value": 37899.84240545638
    },
    {
      "trait_type": "disk size",
      "value": 4.29686390767062
    },
    {
      "trait_type": "background",
      "value": "milkyway"
    },
    {
      "trait_type": "disk type",
      "value": "element"
    },
    {
      "trait_type": "spin",
      "value": 0.5519124247627192
    }
  ],
  "imagePreview": "https://blackholes.rosetea.xyz/thumbnails/0f6e0f360b215805591afc051d378e207521d054b785d765ab9c4ea780067b24.png"
}
