{
  "name": "RoseTea Black Hole #153842D5",
  "description": "A unique 3D interactible black hole animation, powered by DymensionHub and Avail!",
  "image": "https://blackholes.rosetea.xyz/thumbnails/153842d5c7758256f8b992fadb52a50f0a71212a1578d4691750451e68060f94.png",
  "animation_url": "https://blackholes.rosetea.xyz/153842d5c7758256f8b992fadb52a50f0a71212a1578d4691750451e68060f94.html",
  "attributes": [
    {
      "trait_type": "mass",
      "value": 32461.922925600287
    },
    {
      "trait_type": "disk size",
      "value": 6.591810144389407
    },
    {
      "trait_type": "background",
      "value": "crab"
    },
    {
      "trait_type": "disk type",
      "value": "gamers delight grapes"
    },
    {
      "trait_type": "spin",
      "value": 0.5280203612511805
    }
  ],
  "imagePreview": "https://blackholes.rosetea.xyz/thumbnails/153842d5c7758256f8b992fadb52a50f0a71212a1578d4691750451e68060f94.png"
}
