{
  "name": "RoseTea Black Hole #20FF3736",
  "description": "A unique 3D interactible black hole animation, powered by DymensionHub and Avail!",
  "image": "https://blackholes.rosetea.xyz/thumbnails/20ff373629524fe0ad1dbc8313a71b193301d71fced773dac82d7f1b82875211.png",
  "animation_url": "https://blackholes.rosetea.xyz/20ff373629524fe0ad1dbc8313a71b193301d71fced773dac82d7f1b82875211.html",
  "attributes": [
    {
      "trait_type": "mass",
      "value": 28665.942372928064
    },
    {
      "trait_type": "disk size",
      "value": 4.334725185491384
    },
    {
      "trait_type": "background",
      "value": "milkyway"
    },
    {
      "trait_type": "disk type",
      "value": "sauron takis"
    },
    {
      "trait_type": "spin",
      "value": 0.4464616183550329
    }
  ],
  "imagePreview": "https://blackholes.rosetea.xyz/thumbnails/20ff373629524fe0ad1dbc8313a71b193301d71fced773dac82d7f1b82875211.png"
}
