{
  "name": "RoseTea Black Hole #300CE3EB",
  "description": "A unique 3D interactible black hole animation, powered by DymensionHub and Avail!",
  "image": "https://blackholes.rosetea.xyz/thumbnails/300ce3eb1a6992f18aba59a6ccc0e78e033a85cde2600ef3d6c472c1f15b61d3.png",
  "animation_url": "https://blackholes.rosetea.xyz/300ce3eb1a6992f18aba59a6ccc0e78e033a85cde2600ef3d6c472c1f15b61d3.html",
  "attributes": [
    {
      "trait_type": "mass",
      "value": 24818.4894515626
    },
    {
      "trait_type": "disk size",
      "value": 3.0545817239041053
    },
    {
      "trait_type": "background",
      "value": "milkyway"
    },
    {
      "trait_type": "disk type",
      "value": "avatar slime"
    },
    {
      "trait_type": "spin",
      "value": 0.8231492771594836
    }
  ],
  "imagePreview": "https://blackholes.rosetea.xyz/thumbnails/300ce3eb1a6992f18aba59a6ccc0e78e033a85cde2600ef3d6c472c1f15b61d3.png"
}
