{
  "name": "RoseTea Black Hole #3A5423C9",
  "description": "A unique 3D interactible black hole animation, powered by DymensionHub and Avail!",
  "image": "https://blackholes.rosetea.xyz/thumbnails/3a5423c9c6e3b6e82a82ab5be31e778fb31c9751fd98ef6ca06d427fa51ccef9.png",
  "animation_url": "https://blackholes.rosetea.xyz/3a5423c9c6e3b6e82a82ab5be31e778fb31c9751fd98ef6ca06d427fa51ccef9.html",
  "attributes": [
    {
      "trait_type": "mass",
      "value": 39223.006355062826
    },
    {
      "trait_type": "disk size",
      "value": 5.4361101848987055
    },
    {
      "trait_type": "background",
      "value": "crab"
    },
    {
      "trait_type": "disk type",
      "value": "avatar"
    },
    {
      "trait_type": "spin",
      "value": 0.6229235647483712
    }
  ],
  "imagePreview": "https://blackholes.rosetea.xyz/thumbnails/3a5423c9c6e3b6e82a82ab5be31e778fb31c9751fd98ef6ca06d427fa51ccef9.png"
}
