{
  "name": "RoseTea Black Hole #52A5B2B2",
  "description": "A unique 3D interactible black hole animation, powered by DymensionHub and Avail!",
  "image": "https://blackholes.rosetea.xyz/thumbnails/52a5b2b264b8c17cf0cc295ef38c94eaa74599fb25cc03d4f6acadc4a234366e.png",
  "animation_url": "https://blackholes.rosetea.xyz/52a5b2b264b8c17cf0cc295ef38c94eaa74599fb25cc03d4f6acadc4a234366e.html",
  "attributes": [
    {
      "trait_type": "mass",
      "value": 4.297796012731851
    },
    {
      "trait_type": "disk size",
      "value": 4.9405514142465705
    },
    {
      "trait_type": "background",
      "value": "milkyway"
    },
    {
      "trait_type": "disk type",
      "value": "bona dance"
    },
    {
      "trait_type": "spin",
      "value": 0.644532742874007
    }
  ],
  "imagePreview": "https://blackholes.rosetea.xyz/thumbnails/52a5b2b264b8c17cf0cc295ef38c94eaa74599fb25cc03d4f6acadc4a234366e.png"
}
