{
  "name": "RoseTea Black Hole #56DF0547",
  "description": "A unique 3D interactible black hole animation, powered by DymensionHub and Avail!",
  "image": "https://blackholes.rosetea.xyz/thumbnails/56df05479dea2420fa71ae37ad5cfb7e8aea4588fd7603f8a70fd797b2d812c2.png",
  "animation_url": "https://blackholes.rosetea.xyz/56df05479dea2420fa71ae37ad5cfb7e8aea4588fd7603f8a70fd797b2d812c2.html",
  "attributes": [
    {
      "trait_type": "mass",
      "value": 49535.7428464914
    },
    {
      "trait_type": "disk size",
      "value": 3.813888313379759
    },
    {
      "trait_type": "background",
      "value": "milkyway"
    },
    {
      "trait_type": "disk type",
      "value": "strawberry-peach pink"
    },
    {
      "trait_type": "spin",
      "value": 0.6919619518799591
    }
  ],
  "imagePreview": "https://blackholes.rosetea.xyz/thumbnails/56df05479dea2420fa71ae37ad5cfb7e8aea4588fd7603f8a70fd797b2d812c2.png"
}
