{
  "name": "RoseTea Black Hole #64A051AF",
  "description": "A unique 3D interactible black hole animation, powered by DymensionHub and Avail!",
  "image": "https://blackholes.rosetea.xyz/thumbnails/64a051af1bf7c2932bbc14c4c7af8656202399c2a309c17424206069f590f6c8.png",
  "animation_url": "https://blackholes.rosetea.xyz/64a051af1bf7c2932bbc14c4c7af8656202399c2a309c17424206069f590f6c8.html",
  "attributes": [
    {
      "trait_type": "mass",
      "value": 81339.43868965025
    },
    {
      "trait_type": "disk size",
      "value": 1.0996882222623183
    },
    {
      "trait_type": "background",
      "value": "crab"
    },
    {
      "trait_type": "disk type",
      "value": "gamers delight apple juice"
    },
    {
      "trait_type": "spin",
      "value": 0.7901020743707294
    }
  ],
  "imagePreview": "https://blackholes.rosetea.xyz/thumbnails/64a051af1bf7c2932bbc14c4c7af8656202399c2a309c17424206069f590f6c8.png"
}
