{
  "name": "RoseTea Black Hole #6734FB29",
  "description": "A unique 3D interactible black hole animation, powered by DymensionHub and Avail!",
  "image": "https://blackholes.rosetea.xyz/thumbnails/6734fb299362af19045887039ab91a33857a8f5545020517cae2e1966681dffc.png",
  "animation_url": "https://blackholes.rosetea.xyz/6734fb299362af19045887039ab91a33857a8f5545020517cae2e1966681dffc.html",
  "attributes": [
    {
      "trait_type": "mass",
      "value": 66071.84178415411
    },
    {
      "trait_type": "disk size",
      "value": 7.046237747648453
    },
    {
      "trait_type": "background",
      "value": "galaxy"
    },
    {
      "trait_type": "disk type",
      "value": "angel chocolate"
    },
    {
      "trait_type": "spin",
      "value": 0.8569882189700937
    }
  ],
  "imagePreview": "https://blackholes.rosetea.xyz/thumbnails/6734fb299362af19045887039ab91a33857a8f5545020517cae2e1966681dffc.png"
}
