{
  "name": "RoseTea Black Hole #6E7A0000",
  "description": "A unique 3D interactible black hole animation, powered by DymensionHub and Avail!",
  "image": "https://blackholes.rosetea.xyz/thumbnails/6e7a00007577f7182e038f04410f80449015fa7b147ed494b1fd38fca79843df.png",
  "animation_url": "https://blackholes.rosetea.xyz/6e7a00007577f7182e038f04410f80449015fa7b147ed494b1fd38fca79843df.html",
  "attributes": [
    {
      "trait_type": "mass",
      "value": 57512.541121970244
    },
    {
      "trait_type": "disk size",
      "value": 2.947597155295938
    },
    {
      "trait_type": "background",
      "value": "crab2"
    },
    {
      "trait_type": "disk type",
      "value": "sauron"
    },
    {
      "trait_type": "spin",
      "value": 0.5922320379053051
    }
  ],
  "imagePreview": "https://blackholes.rosetea.xyz/thumbnails/6e7a00007577f7182e038f04410f80449015fa7b147ed494b1fd38fca79843df.png"
}
