{
  "name": "RoseTea Black Hole #6FFBD39E",
  "description": "A unique 3D interactible black hole animation, powered by DymensionHub and Avail!",
  "image": "https://blackholes.rosetea.xyz/thumbnails/6ffbd39e756fb3838fbd6c51e9748a3c78a9caa403a35ebc266df169f28b2a8d.png",
  "animation_url": "https://blackholes.rosetea.xyz/6ffbd39e756fb3838fbd6c51e9748a3c78a9caa403a35ebc266df169f28b2a8d.html",
  "attributes": [
    {
      "trait_type": "mass",
      "value": 69605.04347307292
    },
    {
      "trait_type": "disk size",
      "value": 7.3520665431557
    },
    {
      "trait_type": "background",
      "value": "milkyway"
    },
    {
      "trait_type": "disk type",
      "value": "sauron uwu"
    },
    {
      "trait_type": "spin",
      "value": 0.8326691209877384
    }
  ],
  "imagePreview": "https://blackholes.rosetea.xyz/thumbnails/6ffbd39e756fb3838fbd6c51e9748a3c78a9caa403a35ebc266df169f28b2a8d.png"
}
