{
  "name": "RoseTea Black Hole #7F5FE7FA",
  "description": "A unique 3D interactible black hole animation, powered by DymensionHub and Avail!",
  "image": "https://blackholes.rosetea.xyz/thumbnails/7f5fe7fa4522839ec04fdccb008e897c4feef27f77603fea01237bf74628113b.png",
  "animation_url": "https://blackholes.rosetea.xyz/7f5fe7fa4522839ec04fdccb008e897c4feef27f77603fea01237bf74628113b.html",
  "attributes": [
    {
      "trait_type": "mass",
      "value": 67276.47139346194
    },
    {
      "trait_type": "disk size",
      "value": 6.421091614314756
    },
    {
      "trait_type": "background",
      "value": "milkyway"
    },
    {
      "trait_type": "disk type",
      "value": "avatar slime"
    },
    {
      "trait_type": "spin",
      "value": 0.5806725060044072
    }
  ],
  "imagePreview": "https://blackholes.rosetea.xyz/thumbnails/7f5fe7fa4522839ec04fdccb008e897c4feef27f77603fea01237bf74628113b.png"
}
