{
    "name": "Uncharted RoseTea Black Hole",
    "description": "A unique 3D interactible black hole animation, powered by DymensionHub and Avail! This one hasn't been discovered yet.",
    "image": "https://blackholes.rosetea.xyz/thumbnails/default.png",
    "animation_url": "https://blackholes.rosetea.xyz/default.html",
    "attributes": [
      {
        "trait_type": "mass",
        "value": 1000
      },
      {
        "trait_type": "disk size",
        "value": 0.0
      },
      {
        "trait_type": "background",
        "value": "milkyway"
      },
      {
        "trait_type": "disk type",
        "value": "avatar"
      },
      {
        "trait_type": "spin",
        "value": 0.0
      }
    ],
    "imagePreview": "https://blackholes.rosetea.xyz/thumbnails/default.png"
  }
  