{
  "name": "RoseTea Black Hole #A16C9BD4",
  "description": "A unique 3D interactible black hole animation, powered by DymensionHub and Avail!",
  "image": "https://blackholes.rosetea.xyz/thumbnails/a16c9bd47b9e565081a6b301c0cc4fd7295d52011c53daf31f019348adc0b933.png",
  "animation_url": "https://blackholes.rosetea.xyz/a16c9bd47b9e565081a6b301c0cc4fd7295d52011c53daf31f019348adc0b933.html",
  "attributes": [
    {
      "trait_type": "mass",
      "value": 65123.142011374686
    },
    {
      "trait_type": "disk size",
      "value": 2.2865240501543056
    },
    {
      "trait_type": "background",
      "value": "galaxy"
    },
    {
      "trait_type": "disk type",
      "value": "bona"
    },
    {
      "trait_type": "spin",
      "value": 0.6965896924376583
    }
  ],
  "imagePreview": "https://blackholes.rosetea.xyz/thumbnails/a16c9bd47b9e565081a6b301c0cc4fd7295d52011c53daf31f019348adc0b933.png"
}
