{
  "name": "RoseTea Black Hole #A4970457",
  "description": "A unique 3D interactible black hole animation, powered by DymensionHub and Avail!",
  "image": "https://blackholes.rosetea.xyz/thumbnails/a49704573141b0bf4569d8b5981d7ee1823fca734f1930c6730ef2b726268c76.png",
  "animation_url": "https://blackholes.rosetea.xyz/a49704573141b0bf4569d8b5981d7ee1823fca734f1930c6730ef2b726268c76.html",
  "attributes": [
    {
      "trait_type": "mass",
      "value": 37468.26476791011
    },
    {
      "trait_type": "disk size",
      "value": 5.470999523223934
    },
    {
      "trait_type": "background",
      "value": "crab"
    },
    {
      "trait_type": "disk type",
      "value": "sauron takis"
    },
    {
      "trait_type": "spin",
      "value": 0.43126251222876133
    }
  ],
  "imagePreview": "https://blackholes.rosetea.xyz/thumbnails/a49704573141b0bf4569d8b5981d7ee1823fca734f1930c6730ef2b726268c76.png"
}
