{
  "name": "RoseTea Black Hole #A7412A5A",
  "description": "A unique 3D interactible black hole animation, powered by DymensionHub and Avail!",
  "image": "https://blackholes.rosetea.xyz/thumbnails/a7412a5a0544f7a1d048cba0321e0bf175ef21f467ac248d6e6b93fcf5606d10.png",
  "animation_url": "https://blackholes.rosetea.xyz/a7412a5a0544f7a1d048cba0321e0bf175ef21f467ac248d6e6b93fcf5606d10.html",
  "attributes": [
    {
      "trait_type": "mass",
      "value": 72434.4949741874
    },
    {
      "trait_type": "disk size",
      "value": 4.2423524553910426
    },
    {
      "trait_type": "background",
      "value": "milkyway"
    },
    {
      "trait_type": "disk type",
      "value": "bona moonlight"
    },
    {
      "trait_type": "spin",
      "value": 0.4164800187857729
    }
  ],
  "imagePreview": "https://blackholes.rosetea.xyz/thumbnails/a7412a5a0544f7a1d048cba0321e0bf175ef21f467ac248d6e6b93fcf5606d10.png"
}
