{
  "name": "RoseTea Black Hole #A982E389",
  "description": "A unique 3D interactible black hole animation, powered by DymensionHub and Avail!",
  "image": "https://blackholes.rosetea.xyz/thumbnails/a982e389364b373b7187f99f8409308d86b78bb7dadb59665379bf68f4dc17f8.png",
  "animation_url": "https://blackholes.rosetea.xyz/a982e389364b373b7187f99f8409308d86b78bb7dadb59665379bf68f4dc17f8.html",
  "attributes": [
    {
      "trait_type": "mass",
      "value": 54659.536342787
    },
    {
      "trait_type": "disk size",
      "value": 4.308288927366068
    },
    {
      "trait_type": "background",
      "value": "crab"
    },
    {
      "trait_type": "disk type",
      "value": "gamers delight cursed"
    },
    {
      "trait_type": "spin",
      "value": 0.5964306120308946
    }
  ],
  "imagePreview": "https://blackholes.rosetea.xyz/thumbnails/a982e389364b373b7187f99f8409308d86b78bb7dadb59665379bf68f4dc17f8.png"
}
