{
  "name": "RoseTea Black Hole #ACB6D9A9",
  "description": "A unique 3D interactible black hole animation, powered by DymensionHub and Avail!",
  "image": "https://blackholes.rosetea.xyz/thumbnails/acb6d9a9889762ed71347b6ea933728317847a3a3c35859d41e1fb0bf631fb0e.png",
  "animation_url": "https://blackholes.rosetea.xyz/acb6d9a9889762ed71347b6ea933728317847a3a3c35859d41e1fb0bf631fb0e.html",
  "attributes": [
    {
      "trait_type": "mass",
      "value": 51778.067339574234
    },
    {
      "trait_type": "disk size",
      "value": 1.69749842662379
    },
    {
      "trait_type": "background",
      "value": "crab"
    },
    {
      "trait_type": "disk type",
      "value": "angel electro-rat"
    },
    {
      "trait_type": "spin",
      "value": 0.2878016058365106
    }
  ],
  "imagePreview": "https://blackholes.rosetea.xyz/thumbnails/acb6d9a9889762ed71347b6ea933728317847a3a3c35859d41e1fb0bf631fb0e.png"
}
