{
  "name": "RoseTea Black Hole #B5BEAC79",
  "description": "A unique 3D interactible black hole animation, powered by DymensionHub and Avail!",
  "image": "https://blackholes.rosetea.xyz/thumbnails/b5beac7919ae4f1ef1e977d33d7dee186db3df7aff47cc5974b4995265c97864.png",
  "animation_url": "https://blackholes.rosetea.xyz/b5beac7919ae4f1ef1e977d33d7dee186db3df7aff47cc5974b4995265c97864.html",
  "attributes": [
    {
      "trait_type": "mass",
      "value": 5235.922943976948
    },
    {
      "trait_type": "disk size",
      "value": 1.8337038564770887
    },
    {
      "trait_type": "background",
      "value": "crab"
    },
    {
      "trait_type": "disk type",
      "value": "element"
    },
    {
      "trait_type": "spin",
      "value": 0.5069031343601731
    }
  ],
  "imagePreview": "https://blackholes.rosetea.xyz/thumbnails/b5beac7919ae4f1ef1e977d33d7dee186db3df7aff47cc5974b4995265c97864.png"
}
