{
  "name": "RoseTea Black Hole #CAB08169",
  "description": "A unique 3D interactible black hole animation, powered by DymensionHub and Avail!",
  "image": "https://blackholes.rosetea.xyz/thumbnails/cab081698cb34040bd7c61a40c5db24150b713ae884d4bb8234d393be142add4.png",
  "animation_url": "https://blackholes.rosetea.xyz/cab081698cb34040bd7c61a40c5db24150b713ae884d4bb8234d393be142add4.html",
  "attributes": [
    {
      "trait_type": "mass",
      "value": 6332.542639095063
    },
    {
      "trait_type": "disk size",
      "value": 3.8628472005923205
    },
    {
      "trait_type": "background",
      "value": "crab"
    },
    {
      "trait_type": "disk type",
      "value": "avatar"
    },
    {
      "trait_type": "spin",
      "value": 0.5687640110523149
    }
  ],
  "imagePreview": "https://blackholes.rosetea.xyz/thumbnails/cab081698cb34040bd7c61a40c5db24150b713ae884d4bb8234d393be142add4.png"
}
