{
  "name": "RoseTea Black Hole #D1721F03",
  "description": "A unique 3D interactible black hole animation, powered by DymensionHub and Avail!",
  "image": "https://blackholes.rosetea.xyz/thumbnails/d1721f03f29af80fd84d431baf86a64bda3208b07b4c31ba0725fdaca1773116.png",
  "animation_url": "https://blackholes.rosetea.xyz/d1721f03f29af80fd84d431baf86a64bda3208b07b4c31ba0725fdaca1773116.html",
  "attributes": [
    {
      "trait_type": "mass",
      "value": 92188.7619259572
    },
    {
      "trait_type": "disk size",
      "value": 7.168631690384322
    },
    {
      "trait_type": "background",
      "value": "milkyway"
    },
    {
      "trait_type": "disk type",
      "value": "avatar eternal"
    },
    {
      "trait_type": "spin",
      "value": 0.7384008900264318
    }
  ],
  "imagePreview": "https://blackholes.rosetea.xyz/thumbnails/d1721f03f29af80fd84d431baf86a64bda3208b07b4c31ba0725fdaca1773116.png"
}
