{
  "name": "RoseTea Black Hole #D51BEEB0",
  "description": "A unique 3D interactible black hole animation, powered by DymensionHub and Avail!",
  "image": "https://blackholes.rosetea.xyz/thumbnails/d51beeb0498915e51f4091d104e241c1a46aeee7f1a31ab1f9e7189a933cdbca.png",
  "animation_url": "https://blackholes.rosetea.xyz/d51beeb0498915e51f4091d104e241c1a46aeee7f1a31ab1f9e7189a933cdbca.html",
  "attributes": [
    {
      "trait_type": "mass",
      "value": 2331.351366205825
    },
    {
      "trait_type": "disk size",
      "value": 7.665717988975789
    },
    {
      "trait_type": "background",
      "value": "crab"
    },
    {
      "trait_type": "disk type",
      "value": "sauron takis"
    },
    {
      "trait_type": "spin",
      "value": 0.6005029405446817
    }
  ],
  "imagePreview": "https://blackholes.rosetea.xyz/thumbnails/d51beeb0498915e51f4091d104e241c1a46aeee7f1a31ab1f9e7189a933cdbca.png"
}
