{
  "name": "RoseTea Black Hole #EA6FF58E",
  "description": "A unique 3D interactible black hole animation, powered by DymensionHub and Avail!",
  "image": "https://blackholes.rosetea.xyz/thumbnails/ea6ff58ee049d18f646a946a6d2cad6a023358bb5cc98aeb7216bb699f1b9e95.png",
  "animation_url": "https://blackholes.rosetea.xyz/ea6ff58ee049d18f646a946a6d2cad6a023358bb5cc98aeb7216bb699f1b9e95.html",
  "attributes": [
    {
      "trait_type": "mass",
      "value": 3346.223223326426
    },
    {
      "trait_type": "disk size",
      "value": 3.395505779293159
    },
    {
      "trait_type": "background",
      "value": "milkyway"
    },
    {
      "trait_type": "disk type",
      "value": "sauron takis"
    },
    {
      "trait_type": "spin",
      "value": 0.7625074500977815
    }
  ],
  "imagePreview": "https://blackholes.rosetea.xyz/thumbnails/ea6ff58ee049d18f646a946a6d2cad6a023358bb5cc98aeb7216bb699f1b9e95.png"
}
