{
  "name": "RoseTea Black Hole #EAB01BE5",
  "description": "A unique 3D interactible black hole animation, powered by DymensionHub and Avail!",
  "image": "https://blackholes.rosetea.xyz/thumbnails/eab01be585bbb2ac07c7cf6131a3ddc57530fb0a7b1bfc423594c3679a0bec4e.png",
  "animation_url": "https://blackholes.rosetea.xyz/eab01be585bbb2ac07c7cf6131a3ddc57530fb0a7b1bfc423594c3679a0bec4e.html",
  "attributes": [
    {
      "trait_type": "mass",
      "value": 77865.77108410446
    },
    {
      "trait_type": "disk size",
      "value": 2.5284017531048626
    },
    {
      "trait_type": "background",
      "value": "milkyway"
    },
    {
      "trait_type": "disk type",
      "value": "sauron"
    },
    {
      "trait_type": "spin",
      "value": 0.10950552084112852
    }
  ],
  "imagePreview": "https://blackholes.rosetea.xyz/thumbnails/eab01be585bbb2ac07c7cf6131a3ddc57530fb0a7b1bfc423594c3679a0bec4e.png"
}
